  0
SECTION
  2
HEADER
  9
$ACADVER
  1
AC1009
  9
$INSBASE
 10
0.0
 20
0.0
 30
0.0
  9
$EXTMIN
 10
0.0
 20
0.0
 30
0.0
  9
$EXTMAX
 10
0.0
 20
0.0
 30
0.0
  0
ENDSEC
  0
SECTION
  2
TABLES
  0
TABLE
  2
VPORT
 70
0
  0
ENDTAB
  0
TABLE
  2
LTYPE
 70
1
  0
LTYPE
  2
CONTINUOUS
 70
0
  3
Solid line
 72
65
 73
0
 40
0.0
  0
ENDTAB
  0
TABLE
  2
LAYER
 70
1
  0
LAYER
  2
0
 70
64
 62
7
  6
continuous
  0
ENDTAB
  0
TABLE
  2
STYLE
 70
1
  0
STYLE
  2
STANDARD
 70
0
 40
0
 41
1.0
 50
0.0
 71
0
 42
1
 3
ARIAL.TTF
 4

  0
ENDTAB
  0
TABLE
  2
VIEW
 70
0
  0
ENDTAB
  0
ENDSEC
  0
SECTION
  2
BLOCKS
  0
BLOCK
  8
0
  2
SKETCH002
 70
0
 10
0.0
 20
0.0
 30
0.0
  3
SKETCH002
  0
CIRCLE
  8
0
 62
7
 10
0.0
 20
0.0
 30
152.4
 40
11.1125
  0
CIRCLE
  8
0
 62
7
 10
0.0
 20
0.0
 30
152.4
 40
3.175
  0
POLYLINE
  8
0
 62
7
 70
1
 66
1
 10
0.0
 20
0.0
 30
0.0
  0
VERTEX
  8
0
 10
-8.89
 20
-1.905
 30
152.4
 42
1.0
  0
VERTEX
  8
0
 10
-6.35
 20
-1.905
 30
152.4
  0
VERTEX
  8
0
 10
-6.35
 20
1.905
 30
152.4
 42
1.0
  0
VERTEX
  8
0
 10
-8.89
 20
1.905
 30
152.4
  0
SEQEND
  8
0
  0
POLYLINE
  8
0
 62
7
 70
1
 66
1
 10
0.0
 20
0.0
 30
0.0
  0
VERTEX
  8
0
 10
2.79522160579
 20
8.65146583964
 30
152.4
 42
1.0
  0
VERTEX
  8
0
 10
1.52522160579
 20
6.45176131403
 30
152.4
  0
VERTEX
  8
0
 10
4.82477839421
 20
4.54676131403
 30
152.4
 42
1.0
  0
VERTEX
  8
0
 10
6.09477839421
 20
6.74646583965
 30
152.4
  0
SEQEND
  8
0
  0
POLYLINE
  8
0
 62
7
 70
1
 66
1
 10
0.0
 20
0.0
 30
0.0
  0
VERTEX
  8
0
 10
1.52522160579
 20
-6.45176131403
 30
152.4
 42
1.0
  0
VERTEX
  8
0
 10
2.79522160579
 20
-8.65146583964
 30
152.4
  0
VERTEX
  8
0
 10
6.09477839421
 20
-6.74646583965
 30
152.4
 42
1.0
  0
VERTEX
  8
0
 10
4.82477839421
 20
-4.54676131403
 30
152.4
  0
SEQEND
  8
0
  0
ENDBLK
  0
ENDSEC
  0
SECTION
  2
ENTITIES
  0
INSERT
  2
SKETCH002
  8
0
 62
7
 10
0.0
 20
0.0
 30
0.0
  0
ENDSEC
  0
EOF
